('Z:\\home\\ver\\Desktop\\python_examp\\nfs_automation_of_deploying\\dist\\subr.exe',
 True,
 False,
 False,
 'c:\\users\\ver\\local settings\\application '
 'data\\Programs\\Python\\Python38\\lib\\site-packages\\PyInstaller\\bootloader\\images\\icon-console.ico',
 None,
 False,
 False,
 '<?xml version="1.0" encoding="UTF-8" standalone="yes"?><assembly xmlns="urn:schemas-microsoft-com:asm.v1" manifestVersion="1.0"><assemblyIdentity type="win32" name="subr" processorArchitecture="amd64" version="1.0.0.0"/><trustInfo xmlns="urn:schemas-microsoft-com:asm.v3"><security><requestedPrivileges><requestedExecutionLevel level="asInvoker" uiAccess="false"/></requestedPrivileges></security></trustInfo><dependency><dependentAssembly><assemblyIdentity type="win32" name="Microsoft.Windows.Common-Controls" language="*" processorArchitecture="*" version="6.0.0.0" publicKeyToken="6595b64144ccf1df"/><compatibility xmlns="urn:schemas-microsoft-com:compatibility.v1"/></dependentAssembly></dependency><compatibility xmlns="urn:schemas-microsoft-com:compatibility.v1"><application><supportedOS Id="{e2011457-1546-43c5-a5fe-008deee3d3f0}"/><supportedOS Id="{35138b9a-5d96-4fbd-8e2d-a2440225f93a}"/><supportedOS Id="{4a2f28e3-53b9-4441-ba9c-d69d4a4a6e38}"/><supportedOS Id="{1f676c76-80e1-4239-95bb-83d0f6d0da78}"/><supportedOS Id="{8e0f7a12-bfb3-4fe8-b9a5-48fd50a15a9a}"/></application></compatibility><application xmlns="urn:schemas-microsoft-com:asm.v3"><windowsSettings><longPathAware xmlns="http://schemas.microsoft.com/SMI/2016/WindowsSettings">true</longPathAware></windowsSettings></application></assembly>',
 True,
 'subr.pkg',
 [('PYZ-00.pyz',
   'Z:\\home\\ver\\Desktop\\python_examp\\nfs_automation_of_deploying\\build\\subr\\PYZ-00.pyz',
   'PYZ'),
  ('struct',
   'c:\\users\\ver\\local settings\\application '
   'data\\Programs\\Python\\Python38\\lib\\struct.pyo',
   'PYMODULE'),
  ('pyimod01_os_path',
   'c:\\users\\ver\\local settings\\application '
   'data\\Programs\\Python\\Python38\\lib\\site-packages\\PyInstaller\\loader\\pyimod01_os_path.pyc',
   'PYMODULE'),
  ('pyimod02_archive',
   'c:\\users\\ver\\local settings\\application '
   'data\\Programs\\Python\\Python38\\lib\\site-packages\\PyInstaller\\loader\\pyimod02_archive.pyc',
   'PYMODULE'),
  ('pyimod03_importers',
   'c:\\users\\ver\\local settings\\application '
   'data\\Programs\\Python\\Python38\\lib\\site-packages\\PyInstaller\\loader\\pyimod03_importers.pyc',
   'PYMODULE'),
  ('pyiboot01_bootstrap',
   'c:\\users\\ver\\local settings\\application '
   'data\\Programs\\Python\\Python38\\lib\\site-packages\\PyInstaller\\loader\\pyiboot01_bootstrap.py',
   'PYSOURCE'),
  ('pyi_rth_multiprocessing',
   'C:\\users\\ver\\Local Settings\\Application '
   'Data\\Programs\\Python\\Python38\\Lib\\site-packages\\PyInstaller\\hooks\\rthooks\\pyi_rth_multiprocessing.py',
   'PYSOURCE'),
  ('subr',
   'Z:\\home\\ver\\Desktop\\python_examp\\nfs_automation_of_deploying\\subr.py',
   'PYSOURCE'),
  ('python38.dll',
   'c:\\users\\ver\\local settings\\application '
   'data\\Programs\\Python\\Python38\\python38.dll',
   'BINARY'),
  ('VCRUNTIME140.dll',
   'c:\\users\\ver\\local settings\\application '
   'data\\Programs\\Python\\Python38\\VCRUNTIME140.dll',
   'BINARY'),
  ('api-ms-win-crt-math-l1-1-0.dll',
   'C:\\windows\\system32\\api-ms-win-crt-math-l1-1-0.dll',
   'BINARY'),
  ('api-ms-win-crt-locale-l1-1-0.dll',
   'C:\\windows\\system32\\api-ms-win-crt-locale-l1-1-0.dll',
   'BINARY'),
  ('api-ms-win-crt-runtime-l1-1-0.dll',
   'C:\\windows\\system32\\api-ms-win-crt-runtime-l1-1-0.dll',
   'BINARY'),
  ('api-ms-win-crt-stdio-l1-1-0.dll',
   'C:\\windows\\system32\\api-ms-win-crt-stdio-l1-1-0.dll',
   'BINARY'),
  ('api-ms-win-crt-heap-l1-1-0.dll',
   'C:\\windows\\system32\\api-ms-win-crt-heap-l1-1-0.dll',
   'BINARY'),
  ('api-ms-win-crt-string-l1-1-0.dll',
   'C:\\windows\\system32\\api-ms-win-crt-string-l1-1-0.dll',
   'BINARY'),
  ('api-ms-win-crt-time-l1-1-0.dll',
   'C:\\windows\\system32\\api-ms-win-crt-time-l1-1-0.dll',
   'BINARY'),
  ('api-ms-win-crt-process-l1-1-0.dll',
   'C:\\windows\\system32\\api-ms-win-crt-process-l1-1-0.dll',
   'BINARY'),
  ('api-ms-win-crt-filesystem-l1-1-0.dll',
   'C:\\windows\\system32\\api-ms-win-crt-filesystem-l1-1-0.dll',
   'BINARY'),
  ('api-ms-win-crt-conio-l1-1-0.dll',
   'C:\\windows\\system32\\api-ms-win-crt-conio-l1-1-0.dll',
   'BINARY'),
  ('api-ms-win-crt-environment-l1-1-0.dll',
   'C:\\windows\\system32\\api-ms-win-crt-environment-l1-1-0.dll',
   'BINARY'),
  ('api-ms-win-crt-convert-l1-1-0.dll',
   'C:\\windows\\system32\\api-ms-win-crt-convert-l1-1-0.dll',
   'BINARY'),
  ('ucrtbase.dll', 'C:\\windows\\system32\\ucrtbase.dll', 'BINARY'),
  ('_multiprocessing',
   'c:\\users\\ver\\local settings\\application '
   'data\\Programs\\Python\\Python38\\DLLs\\_multiprocessing.pyd',
   'EXTENSION'),
  ('pyexpat',
   'c:\\users\\ver\\local settings\\application '
   'data\\Programs\\Python\\Python38\\DLLs\\pyexpat.pyd',
   'EXTENSION'),
  ('_ssl',
   'c:\\users\\ver\\local settings\\application '
   'data\\Programs\\Python\\Python38\\DLLs\\_ssl.pyd',
   'EXTENSION'),
  ('_hashlib',
   'c:\\users\\ver\\local settings\\application '
   'data\\Programs\\Python\\Python38\\DLLs\\_hashlib.pyd',
   'EXTENSION'),
  ('unicodedata',
   'c:\\users\\ver\\local settings\\application '
   'data\\Programs\\Python\\Python38\\DLLs\\unicodedata.pyd',
   'EXTENSION'),
  ('_decimal',
   'c:\\users\\ver\\local settings\\application '
   'data\\Programs\\Python\\Python38\\DLLs\\_decimal.pyd',
   'EXTENSION'),
  ('_socket',
   'c:\\users\\ver\\local settings\\application '
   'data\\Programs\\Python\\Python38\\DLLs\\_socket.pyd',
   'EXTENSION'),
  ('select',
   'c:\\users\\ver\\local settings\\application '
   'data\\Programs\\Python\\Python38\\DLLs\\select.pyd',
   'EXTENSION'),
  ('_lzma',
   'c:\\users\\ver\\local settings\\application '
   'data\\Programs\\Python\\Python38\\DLLs\\_lzma.pyd',
   'EXTENSION'),
  ('_bz2',
   'c:\\users\\ver\\local settings\\application '
   'data\\Programs\\Python\\Python38\\DLLs\\_bz2.pyd',
   'EXTENSION'),
  ('_overlapped',
   'c:\\users\\ver\\local settings\\application '
   'data\\Programs\\Python\\Python38\\DLLs\\_overlapped.pyd',
   'EXTENSION'),
  ('_asyncio',
   'c:\\users\\ver\\local settings\\application '
   'data\\Programs\\Python\\Python38\\DLLs\\_asyncio.pyd',
   'EXTENSION'),
  ('_queue',
   'c:\\users\\ver\\local settings\\application '
   'data\\Programs\\Python\\Python38\\DLLs\\_queue.pyd',
   'EXTENSION'),
  ('_ctypes',
   'c:\\users\\ver\\local settings\\application '
   'data\\Programs\\Python\\Python38\\DLLs\\_ctypes.pyd',
   'EXTENSION'),
  ('api-ms-win-crt-utility-l1-1-0.dll',
   'C:\\windows\\system32\\api-ms-win-crt-utility-l1-1-0.dll',
   'BINARY'),
  ('libssl-1_1.dll',
   'c:\\users\\ver\\local settings\\application '
   'data\\Programs\\Python\\Python38\\DLLs\\libssl-1_1.dll',
   'BINARY'),
  ('libcrypto-1_1.dll',
   'c:\\users\\ver\\local settings\\application '
   'data\\Programs\\Python\\Python38\\DLLs\\libcrypto-1_1.dll',
   'BINARY'),
  ('libffi-7.dll',
   'c:\\users\\ver\\local settings\\application '
   'data\\Programs\\Python\\Python38\\DLLs\\libffi-7.dll',
   'BINARY'),
  ('base_library.zip',
   'Z:\\home\\ver\\Desktop\\python_examp\\nfs_automation_of_deploying\\build\\subr\\base_library.zip',
   'DATA'),
  ('Include\\pyconfig.h',
   'c:\\users\\ver\\local settings\\application '
   'data\\Programs\\Python\\Python38\\Include\\pyconfig.h',
   'DATA'),
  ('subr.exe.manifest',
   'Z:\\home\\ver\\Desktop\\python_examp\\nfs_automation_of_deploying\\build\\subr\\subr.exe.manifest',
   'BINARY'),
  ('pyi-windows-manifest-filename subr.exe.manifest', '', 'OPTION')],
 [],
 False,
 False,
 1617022071,
 [('run.exe',
   'c:\\users\\ver\\local settings\\application '
   'data\\Programs\\Python\\Python38\\lib\\site-packages\\PyInstaller\\bootloader\\Windows-64bit\\run.exe',
   'EXECUTABLE')])
