('Z:\\home\\ver\\Desktop\\python_examp\\nfs_automation_of_deploying\\build\\subr\\PKG-00.pkg',
 {'BINARY': 1,
  'DATA': 1,
  'EXECUTABLE': 1,
  'EXTENSION': 1,
  'PYMODULE': 1,
  'PYSOURCE': 1,
  'PYZ': 0},
 [('PYZ-00.pyz',
   'Z:\\home\\ver\\Desktop\\python_examp\\nfs_automation_of_deploying\\build\\subr\\PYZ-00.pyz',
   'PYZ'),
  ('struct',
   'c:\\users\\ver\\local settings\\application '
   'data\\Programs\\Python\\Python38\\lib\\struct.pyo',
   'PYMODULE'),
  ('pyimod01_os_path',
   'c:\\users\\ver\\local settings\\application '
   'data\\Programs\\Python\\Python38\\lib\\site-packages\\PyInstaller\\loader\\pyimod01_os_path.pyc',
   'PYMODULE'),
  ('pyimod02_archive',
   'c:\\users\\ver\\local settings\\application '
   'data\\Programs\\Python\\Python38\\lib\\site-packages\\PyInstaller\\loader\\pyimod02_archive.pyc',
   'PYMODULE'),
  ('pyimod03_importers',
   'c:\\users\\ver\\local settings\\application '
   'data\\Programs\\Python\\Python38\\lib\\site-packages\\PyInstaller\\loader\\pyimod03_importers.pyc',
   'PYMODULE'),
  ('pyiboot01_bootstrap',
   'c:\\users\\ver\\local settings\\application '
   'data\\Programs\\Python\\Python38\\lib\\site-packages\\PyInstaller\\loader\\pyiboot01_bootstrap.py',
   'PYSOURCE'),
  ('pyi_rth_multiprocessing',
   'C:\\users\\ver\\Local Settings\\Application '
   'Data\\Programs\\Python\\Python38\\Lib\\site-packages\\PyInstaller\\hooks\\rthooks\\pyi_rth_multiprocessing.py',
   'PYSOURCE'),
  ('subr',
   'Z:\\home\\ver\\Desktop\\python_examp\\nfs_automation_of_deploying\\subr.py',
   'PYSOURCE'),
  ('python38.dll',
   'c:\\users\\ver\\local settings\\application '
   'data\\Programs\\Python\\Python38\\python38.dll',
   'BINARY'),
  ('VCRUNTIME140.dll',
   'c:\\users\\ver\\local settings\\application '
   'data\\Programs\\Python\\Python38\\VCRUNTIME140.dll',
   'BINARY'),
  ('api-ms-win-crt-math-l1-1-0.dll',
   'C:\\windows\\system32\\api-ms-win-crt-math-l1-1-0.dll',
   'BINARY'),
  ('api-ms-win-crt-locale-l1-1-0.dll',
   'C:\\windows\\system32\\api-ms-win-crt-locale-l1-1-0.dll',
   'BINARY'),
  ('api-ms-win-crt-runtime-l1-1-0.dll',
   'C:\\windows\\system32\\api-ms-win-crt-runtime-l1-1-0.dll',
   'BINARY'),
  ('api-ms-win-crt-stdio-l1-1-0.dll',
   'C:\\windows\\system32\\api-ms-win-crt-stdio-l1-1-0.dll',
   'BINARY'),
  ('api-ms-win-crt-heap-l1-1-0.dll',
   'C:\\windows\\system32\\api-ms-win-crt-heap-l1-1-0.dll',
   'BINARY'),
  ('api-ms-win-crt-string-l1-1-0.dll',
   'C:\\windows\\system32\\api-ms-win-crt-string-l1-1-0.dll',
   'BINARY'),
  ('api-ms-win-crt-time-l1-1-0.dll',
   'C:\\windows\\system32\\api-ms-win-crt-time-l1-1-0.dll',
   'BINARY'),
  ('api-ms-win-crt-process-l1-1-0.dll',
   'C:\\windows\\system32\\api-ms-win-crt-process-l1-1-0.dll',
   'BINARY'),
  ('api-ms-win-crt-filesystem-l1-1-0.dll',
   'C:\\windows\\system32\\api-ms-win-crt-filesystem-l1-1-0.dll',
   'BINARY'),
  ('api-ms-win-crt-conio-l1-1-0.dll',
   'C:\\windows\\system32\\api-ms-win-crt-conio-l1-1-0.dll',
   'BINARY'),
  ('api-ms-win-crt-environment-l1-1-0.dll',
   'C:\\windows\\system32\\api-ms-win-crt-environment-l1-1-0.dll',
   'BINARY'),
  ('api-ms-win-crt-convert-l1-1-0.dll',
   'C:\\windows\\system32\\api-ms-win-crt-convert-l1-1-0.dll',
   'BINARY'),
  ('ucrtbase.dll', 'C:\\windows\\system32\\ucrtbase.dll', 'BINARY'),
  ('_multiprocessing',
   'c:\\users\\ver\\local settings\\application '
   'data\\Programs\\Python\\Python38\\DLLs\\_multiprocessing.pyd',
   'EXTENSION'),
  ('pyexpat',
   'c:\\users\\ver\\local settings\\application '
   'data\\Programs\\Python\\Python38\\DLLs\\pyexpat.pyd',
   'EXTENSION'),
  ('_ssl',
   'c:\\users\\ver\\local settings\\application '
   'data\\Programs\\Python\\Python38\\DLLs\\_ssl.pyd',
   'EXTENSION'),
  ('_hashlib',
   'c:\\users\\ver\\local settings\\application '
   'data\\Programs\\Python\\Python38\\DLLs\\_hashlib.pyd',
   'EXTENSION'),
  ('unicodedata',
   'c:\\users\\ver\\local settings\\application '
   'data\\Programs\\Python\\Python38\\DLLs\\unicodedata.pyd',
   'EXTENSION'),
  ('_decimal',
   'c:\\users\\ver\\local settings\\application '
   'data\\Programs\\Python\\Python38\\DLLs\\_decimal.pyd',
   'EXTENSION'),
  ('_socket',
   'c:\\users\\ver\\local settings\\application '
   'data\\Programs\\Python\\Python38\\DLLs\\_socket.pyd',
   'EXTENSION'),
  ('select',
   'c:\\users\\ver\\local settings\\application '
   'data\\Programs\\Python\\Python38\\DLLs\\select.pyd',
   'EXTENSION'),
  ('_lzma',
   'c:\\users\\ver\\local settings\\application '
   'data\\Programs\\Python\\Python38\\DLLs\\_lzma.pyd',
   'EXTENSION'),
  ('_bz2',
   'c:\\users\\ver\\local settings\\application '
   'data\\Programs\\Python\\Python38\\DLLs\\_bz2.pyd',
   'EXTENSION'),
  ('_overlapped',
   'c:\\users\\ver\\local settings\\application '
   'data\\Programs\\Python\\Python38\\DLLs\\_overlapped.pyd',
   'EXTENSION'),
  ('_asyncio',
   'c:\\users\\ver\\local settings\\application '
   'data\\Programs\\Python\\Python38\\DLLs\\_asyncio.pyd',
   'EXTENSION'),
  ('_queue',
   'c:\\users\\ver\\local settings\\application '
   'data\\Programs\\Python\\Python38\\DLLs\\_queue.pyd',
   'EXTENSION'),
  ('_ctypes',
   'c:\\users\\ver\\local settings\\application '
   'data\\Programs\\Python\\Python38\\DLLs\\_ctypes.pyd',
   'EXTENSION'),
  ('api-ms-win-crt-utility-l1-1-0.dll',
   'C:\\windows\\system32\\api-ms-win-crt-utility-l1-1-0.dll',
   'BINARY'),
  ('libssl-1_1.dll',
   'c:\\users\\ver\\local settings\\application '
   'data\\Programs\\Python\\Python38\\DLLs\\libssl-1_1.dll',
   'BINARY'),
  ('libcrypto-1_1.dll',
   'c:\\users\\ver\\local settings\\application '
   'data\\Programs\\Python\\Python38\\DLLs\\libcrypto-1_1.dll',
   'BINARY'),
  ('libffi-7.dll',
   'c:\\users\\ver\\local settings\\application '
   'data\\Programs\\Python\\Python38\\DLLs\\libffi-7.dll',
   'BINARY'),
  ('base_library.zip',
   'Z:\\home\\ver\\Desktop\\python_examp\\nfs_automation_of_deploying\\build\\subr\\base_library.zip',
   'DATA'),
  ('Include\\pyconfig.h',
   'c:\\users\\ver\\local settings\\application '
   'data\\Programs\\Python\\Python38\\Include\\pyconfig.h',
   'DATA'),
  ('subr.exe.manifest',
   'Z:\\home\\ver\\Desktop\\python_examp\\nfs_automation_of_deploying\\build\\subr\\subr.exe.manifest',
   'BINARY'),
  ('pyi-windows-manifest-filename subr.exe.manifest', '', 'OPTION')],
 False,
 False,
 False,
 [])
